length,7
202422.017581,552372.081996
202440.187973,552365.552197
202444.564016,552395.220288
202447.277950,552409.533989
202448.837991,552444.069771
202454.781493,552506.878635
202457.070584,552535.489335
length,5
202457.428616,552533.747428
202461.583809,552604.917075
202464.139992,552648.874745
202469.265496,552668.781478
202470.723453,552722.498652
length,6
202470.037084,552720.402425
202471.354146,552735.057456
202463.718550,552793.608912
202457.841561,552849.379626
202454.162873,552885.282580
202448.250615,552947.679592
length,8
202448.580807,552951.168973
202439.826556,553023.316208
202434.687891,553071.418075
202431.383931,553102.440347
202427.799892,553120.556919
202420.420407,553130.980519
202408.113841,553149.748194
202389.522306,553169.877470
length,17
202385.671180,553172.647074
202373.373894,553189.670985
202355.847176,553206.318303
202346.031992,553215.682650
202328.186219,553226.748071
202295.659433,553244.013080
202278.880335,553251.247790
202240.806920,553262.205555
202213.557825,553270.779591
202193.304197,553275.554472
202163.628685,553281.325495
202153.151263,553284.059831
202130.767999,553295.798623
202108.696366,553314.514319
202096.063322,553329.095101
202073.858048,553372.920969
202062.193302,553402.154919
length,4
202062.564328,553397.971746
202040.681818,553446.682000
202014.905487,553506.183159
201927.319725,553711.486714
length,2
201926.976541,553710.438600
201900.660246,553805.859379
