length,4
189446.734933,546175.681954
189497.248969,546249.012266
189516.781894,546292.234548
189527.930907,546335.412274
length,3
189487.734192,546236.385478
189521.941885,546222.793319
189587.378935,546192.598831
length,4
189520.903831,546305.431544
189533.600639,546282.742050
189556.452448,546264.897466
189620.688617,546235.295466
length,12
189622.494717,546233.508461
189676.531329,546207.445458
189696.366608,546193.776913
189726.328248,546190.342937
189750.938422,546179.694106
189770.818258,546157.641646
189807.360896,546155.440379
189827.855496,546130.396845
189851.357081,546102.973818
189889.164258,546088.203042
189938.362335,546071.097328
189988.888599,546029.445083
length,5
189590.370006,546193.213595
189619.802809,546176.601718
189691.909970,546130.872109
189812.058875,546060.245353
189931.577115,545995.603907
length,5
189858.584122,545982.639776
189870.526135,545989.290786
189895.085392,545988.223565
189917.864008,545984.152541
189941.200104,545987.869762
length,4
189933.975702,545995.017786
189985.053076,545962.351485
190071.516770,545919.692474
190165.867371,545857.911588
length,5
189990.691517,546028.256928
190014.741035,546010.418695
190066.936555,545992.730035
190122.833389,545954.699529
190245.976593,545884.088628
length,3
190245.371377,545885.283149
190302.561389,545829.293454
190376.767458,545726.682454
length,5
190165.883283,545854.917332
190254.302658,545782.325286
190344.585418,545697.166896
190374.167801,545652.408977
190410.493476,545578.342343
length,4
190375.563391,545727.873792
190494.463139,545554.234941
190556.036034,545462.336399
190594.893934,545362.531858
length,4
190408.693740,545578.931648
190450.450440,545497.108580
190480.631668,545452.353831
190540.009614,545322.714915
length,2
190539.394852,545325.705990
190566.043424,545269.553962
length,2
190595.483239,545364.331595
190627.422198,545214.185335
length,3
190566.043424,545269.553962
190572.795603,545125.861432
190564.194655,545053.951529
length,8
190627.415834,545215.383038
190623.016398,545141.698849
190609.146698,545047.003949
190595.751750,544975.667441
190606.056314,544952.366324
190599.153273,544899.030361
190592.052962,544882.823191
190562.272657,544852.122680
length,2
190563.605350,545052.151793
190528.883334,544824.397338
length,4
190528.271756,544826.789562
190514.554743,544703.349809
190514.369498,544625.495942
190538.863678,544411.231209
length,7
190562.269475,544852.721531
190559.297490,544848.513663
190564.479649,544774.880388
190564.214869,544711.997803
190563.981902,544643.126704
190579.751751,544492.894526
190587.377009,544410.291201
length,5
190537.662794,544411.823697
190586.951610,544152.176674
190613.921413,544035.540610
190640.216003,543933.273793
190654.310878,543872.862956
length,6
190586.765431,544412.683426
190602.446166,544279.219081
190617.901012,544188.273189
190643.720834,544062.647986
190656.025526,544001.029904
190665.180080,543968.739639
length,3
190665.183261,543968.140788
190745.682222,543695.484381
190801.781731,543506.539921
length,2
190654.903367,543874.063840
190762.244803,543508.725392
length,2
190762.843654,543508.728573
190828.011779,543303.662815
length,6
190802.985796,543505.348579
190850.551853,543344.505593
190872.501738,543270.961346
190893.094883,543227.353317
190922.677163,543182.595293
190955.855733,543137.257497
length,3
190956.467307,543134.865271
190987.215482,543096.102118
191031.727705,543059.208671
length,16
191036.543964,543054.443302
191112.314160,542995.557720
191173.033551,542951.563914
191201.889756,542930.756761
191257.133611,542902.903323
191305.767834,542879.206862
191377.741384,542858.628693
191470.617513,542848.941172
191585.033245,542842.961256
191650.324030,542840.313658
191714.331245,542853.828710
191761.573781,542866.655859
191844.652044,542897.639403
191912.188776,542923.150590
192050.243794,542976.584288
192083.113887,542989.335116
length,7
192087.305855,542989.357379
192170.333254,543029.922586
192244.960821,543073.437534
192314.746682,543126.508687
192424.487100,543211.532140
192521.718410,543283.912912
192540.818084,543295.991749
