length,4
206394.478562,544566.153175
206407.472662,544561.898375
206520.320261,544549.166074
206531.553014,544537.335209
length,5
206465.563908,544139.912711
206472.315995,544157.604227
206479.735108,544185.388229
206480.090143,544254.211113
206482.608943,544322.685171
length,4
206479.840850,544233.311266
206468.387983,544286.577689
206457.078671,544312.820923
206441.508813,544327.150985
length,4
206524.916792,544362.184737
206533.943663,544358.629498
206552.158190,544321.253044
206569.941585,544297.206117
length,2
203212.478043,541603.559020
203227.406671,541553.299497
length,6
206456.327074,543877.821956
206421.871358,543815.741244
206373.674795,543740.287220
206326.387183,543686.323178
206309.664065,543656.564388
206326.993818,543668.422112
length,3
206382.803658,543755.170693
206408.320715,543766.560357
206389.572277,543742.714489
length,6
206398.175272,543894.905800
206314.173868,543818.750035
206257.711210,543758.598644
206349.728735,543866.513147
206375.577990,543911.666953
206375.433976,543938.778397
length,4
203977.278271,542399.063481
203963.504846,542391.828644
203896.754491,542342.365409
203873.903816,542310.527985
length,2
202858.198952,541399.692433
202882.425761,541365.035715
length,3
202688.409284,540524.042122
202682.969762,540488.716364
202678.991528,540467.210187
length,2
201677.272489,539619.884101
201711.803754,539619.555819
