length,2
204541.019439,550737.300289
204660.890312,550719.372718
length,7
204544.603046,550739.115984
204529.424490,550665.373311
204506.572232,550570.629111
204487.784574,550499.861635
204466.362566,550473.995959
204429.962675,550449.248371
204380.900711,550440.603125
length,3
204379.702990,550440.596754
204309.002420,550446.808348
204232.908926,550453.590132
length,11
204660.272338,550722.962696
204668.751953,550705.041474
204671.459575,550646.365873
204678.037489,550535.608506
204675.791760,550507.449314
204675.361725,550475.706514
204667.216578,550430.747370
204670.293700,550415.192920
204704.463796,550408.787017
204775.161211,550403.174278
204847.884556,550354.453120
