length,11
198155.149332,445116.442386
198167.371464,445070.394080
198183.116732,445037.539705
198181.549253,444994.412497
198213.654548,444925.712642
198234.333841,444865.935176
198257.892872,444827.732449
198294.617200,444791.396286
198340.859599,444767.088157
198376.883259,444749.912216
198461.595656,444698.859159
length,20
198457.992972,444700.636640
198522.306068,444656.661680
198581.216731,444615.053507
198620.938528,444578.134374
198646.810265,444555.514624
198687.774317,444510.217854
198738.973018,444454.794599
198768.495162,444421.414509
198813.033265,444379.729956
198851.461908,444360.770146
198893.410521,444355.603131
198929.924885,444358.791480
198964.620410,444366.162284
199051.289236,444397.764149
199160.052152,444441.460874
199235.339527,444473.601162
199249.696191,444476.671803
199322.871294,444455.501083
199351.055759,444448.464325
199412.260088,444426.032258
length,7
199412.253725,444427.229972
199478.268005,444401.230210
199511.214699,444399.608616
199562.057123,444411.257325
199607.446205,444434.854549
199665.382660,444463.908303
199800.928795,444538.888820
length,0
