length,11
206531.907581,544538.418051
206524.804762,544518.923071
206516.981324,544499.424262
206508.532975,544461.906165
206507.242955,544433.434082
206513.268222,544384.462657
206526.032173,544355.704914
206532.651726,544330.517723
206544.783104,544285.181927
206547.519644,544244.840693
206551.773980,544190.094747
length,9
206393.035411,544566.505827
206389.083496,544564.322916
206387.686285,544556.028149
206396.519380,544521.124101
206422.066427,544460.005534
206445.018570,544412.565314
206471.299629,544348.928405
206486.625938,544312.617569
206496.267690,544261.143120
length,4
206554.333443,544318.742364
206564.630736,544279.522253
206568.850622,544231.261872
206573.003514,544195.612313
length,10
206496.635655,544259.703797
206502.668570,544209.291135
206495.115003,544138.988733
206485.326845,544082.366597
206469.827327,544015.625182
206450.558199,543980.211528
206409.486294,543911.532683
206399.110057,543897.785431
206399.150249,543890.218939
206329.305283,543811.658644
length,9
206551.051448,544190.451228
206549.228375,544126.665013
206543.263895,544096.366500
206529.918576,544031.077802
206508.341646,543955.296117
206492.309556,543920.980616
206457.593064,543876.837245
206438.569406,543863.044059
206399.199515,543813.110865
length,13
206328.943060,543812.017039
206292.775763,543769.667570
206254.481059,543720.821057
206216.889749,543675.221157
206182.121582,543640.806154
206140.543905,543599.508918
206120.107720,543580.303452
206082.064238,543551.996485
205984.740095,543491.306246
205962.469833,543478.216470
205894.848485,543455.877837
205885.871381,543450.065050
205822.543125,543433.514329
length,17
206398.478897,543813.107037
206327.595102,543726.614206
206309.660027,543711.385530
206278.519829,543672.305641
206220.137761,543606.417432
206187.174964,543571.291382
206146.270058,543539.005703
206086.686495,543495.811240
206041.457882,543463.502604
206003.389520,543439.879661
205972.113446,543426.381733
205962.047759,543422.004440
205937.930022,543417.552512
205871.753738,543394.500922
205840.828408,543382.806455
205827.466357,543388.500591
205820.626229,543387.383303
length,15
205822.897693,543434.597169
205743.008628,543415.436256
205573.118905,543381.384562
205419.109591,543342.372761
205309.682897,543321.613706
205239.909310,543297.462075
205173.029678,543271.163905
205083.937217,543220.966721
205017.157104,543175.932512
204966.180818,543140.350533
204927.447370,543106.274855
204911.612929,543102.587571
204841.283318,543047.445604
204731.415451,542974.077729
204668.985843,542924.022200
length,13
205818.098325,543388.450834
205790.749294,543381.819831
205765.604219,543367.273514
205641.811059,543337.790488
205405.018740,543281.764340
205263.229327,543248.582566
205194.885494,543226.600448
205128.097719,543183.007469
205009.613039,543103.828690
204955.758109,543067.510789
204857.400968,542997.807222
204741.124083,542909.992567
204671.480648,542861.340005
length,11
204665.746894,542923.284361
204648.879370,542910.583628
204643.210111,542892.537588
204586.501429,542850.799779
204553.845393,542825.764368
204503.530417,542801.355814
204427.079404,542745.460750
204353.514688,542688.860385
204247.659991,542606.145623
204209.260075,542577.116224
204128.508334,542516.874536
length,8
204671.839043,542861.702227
204545.511802,542766.627861
204445.745978,542690.791461
204381.146870,542642.165719
204293.945923,542575.043715
204177.310675,542486.866946
204141.787484,542458.933785
204128.151257,542448.412138
length,14
204128.147431,542449.132755
204119.887127,542444.044432
204113.047011,542442.927153
204090.786346,542428.035887
204085.429556,542418.999481
204006.504230,542354.083375
203993.558007,542349.330489
203976.784239,542318.974673
203945.260793,542284.216716
203924.866723,542257.084545
203873.376477,542182.585550
203850.138205,542148.231914
203838.320738,542134.477068
203816.851838,542100.770174
length,3
204128.149940,542516.512314
204061.398563,542466.073580
204009.709339,542429.046618
length,11
204009.722733,542426.524460
203973.846892,542397.148161
203954.865357,542375.428263
203920.844630,542335.972905
203912.971422,542325.842183
203890.465250,542289.330519
203867.623641,542248.132938
203837.861593,542206.873705
203812.850300,542172.560466
203720.652041,542042.161553
203639.930198,541925.847230
length,0
length,0
length,6
203817.558144,542102.828919
203789.914318,542062.606569
203756.713874,542010.380921
203725.689279,541962.565367
203658.719227,541873.261583
203610.645482,541814.847898
length,0
length,16
203609.683626,541811.910434
203597.325252,541792.295765
203582.059255,541768.022758
203571.436026,541743.774404
203564.673194,541728.832345
203555.928266,541719.011389
203539.876004,541704.753098
203531.110318,541698.841842
203515.750906,541692.162487
203494.816710,541676.900824
203468.032237,541658.920106
203455.120280,541651.520657
203427.575493,541638.667529
203395.890923,541623.104428
203382.978967,541615.704980
203376.901200,541609.807997
length,5
203377.630376,541610.544958
203366.016746,541588.734983
203359.509946,541571.595020
203348.364270,541553.697340
203346.938351,541546.114514
length,11
203637.915644,541925.444835
203598.103307,541875.872088
203555.909683,541814.557272
203530.665302,541782.656028
203503.372656,541768.338055
203475.663954,541740.333539
203405.447652,541710.148426
203368.347028,541702.131821
203325.829053,541701.906071
203319.002649,541698.937470
203222.728027,541606.057072
length,5
203344.247839,541546.588955
203306.580661,541553.231133
203264.512480,541560.338670
203250.337228,541560.752134
203238.649649,541552.870464
length,6
203222.974978,541605.569657
203183.448963,541594.119098
203145.394275,541581.698900
203090.237256,541568.699174
203046.312836,541557.225266
203001.930843,541539.884218
length,11
203000.467302,541539.387722
202984.875217,541530.507871
202955.661466,541509.826277
202929.361826,541492.581237
202897.285860,541458.688850
202882.704932,541443.460933
202873.549136,541418.976029
202850.220688,541394.415880
202827.409494,541364.482494
202802.141765,541336.979697
202779.322787,541308.512450
length,17
203238.402698,541553.357879
203181.306392,541537.415501
203093.449761,541515.933823
203052.954110,541503.011943
203024.190148,541489.663626
202995.444350,541472.894324
202950.188721,541435.999606
202925.383756,541413.386519
202903.048300,541385.899285
202881.165230,541365.256617
202842.761950,541326.443385
202834.534278,541311.249202
202817.057400,541289.163752
202776.278018,541237.631039
202739.884071,541188.565243
202716.630863,541149.832454
202705.031500,541125.334585
length,4
202779.322787,541308.512450
202750.184281,541273.658218
202719.116872,541233.906490
202696.318648,541201.529552
length,12
202697.301261,541200.557317
202674.063622,541158.892258
202654.696758,541124.578637
202618.812278,541071.605750
202565.448322,540997.036141
202547.537213,540964.685159
202543.221828,540949.023027
202545.813269,540921.179419
202578.147714,540814.320139
202599.010880,540750.896547
202615.379645,540705.531946
202637.404420,540607.414987
length,11
202704.054076,541125.329396
202628.562215,540984.175602
202619.809505,540975.820798
202590.761796,540923.861665
202590.813684,540914.087426
202606.753416,540857.479859
202657.367367,540713.574447
202678.157888,540663.834783
202681.196525,540643.813157
202681.318455,540620.843693
202683.335564,540609.124981
length,15
202682.350358,540610.585929
202690.767420,540590.104127
202697.255576,540564.724827
202692.017237,540538.794554
202688.182772,540524.601152
202670.307963,540485.408207
202611.684861,540388.818054
202545.307213,540279.968610
202526.418656,540247.612455
202516.215368,540236.317605
202472.625589,540161.799934
202443.585620,540108.374699
202405.785152,540048.060810
202367.503750,539986.278197
202328.471652,539973.852889
length,10
202636.416619,540609.364646
202646.579992,540536.109733
202646.691542,540515.095118
202639.500949,540488.665758
202623.523915,540460.234855
202587.202569,540397.485163
202531.480605,540306.775132
202499.503184,540254.311749
202407.420942,540108.182745
202359.466472,540027.288488
length,2
202358.010712,540025.325859
202327.998503,539970.918024
length,11
202327.985534,539973.361583
202275.149126,539891.463979
202262.497090,539881.133591
202224.502077,539857.473106
202148.475739,539816.994105
201977.376293,539733.491409
201869.175412,539677.691183
201817.491299,539654.935515
201783.842828,539641.072625
201729.694411,539622.213684
201716.257275,539619.534262
length,7
201716.023458,539619.697503
201540.734266,539588.954964
201493.869846,539578.931741
201375.193395,539563.151423
201365.913067,539562.124721
201290.131694,539567.587235
201262.363338,539550.823212
length,11
201263.330385,539552.783244
201216.377795,539559.376208
201170.899122,539564.510819
201115.669570,539565.195155
201031.174415,539554.972225
200914.951953,539537.250041
200810.466351,539518.123977
200750.459972,539497.291493
200699.242552,539479.413169
200669.407842,539483.653355
200603.693825,539433.943412
