length,6
213962.505945,552445.126377
213948.789371,552434.273484
213946.460824,552421.684537
213948.321157,552409.716763
213983.447379,552336.240982
214014.715912,552312.452015
length,5
213936.092298,552344.373375
214012.473401,552283.693666
214174.368380,552134.235273
214338.631013,551981.240074
214381.952502,551952.081307
length,2
214338.988535,551979.101930
214358.630063,552001.964025
length,5
214338.985349,551979.700797
214387.773971,551927.258598
214339.794515,551940.178765
214333.222910,551937.149381
214299.874355,551901.637798
