length,2
204071.083171,550455.745361
204176.551782,550336.057879
length,10
204171.947470,550332.179272
204298.416361,550322.060416
204457.324548,550299.780918
204642.595824,550248.350323
204899.002331,550155.673554
205387.092449,549980.979914
205474.980365,549978.364048
205572.003137,549997.379858
205684.105814,550079.683509
205861.366030,550375.081421
length,7
206433.310168,551173.615412
206431.743958,551178.232033
206437.830426,551193.295508
206439.738983,551196.774375
206438.566375,551199.851439
206435.872663,551199.066284
206420.245461,551166.223069
length,4
206551.542054,554087.579567
206516.433278,554166.787714
206501.669020,554189.063063
206504.584009,554220.682427
length,5
206550.771250,554087.575464
206557.770028,554076.050334
206608.122552,554029.297997
206637.610035,553992.455325
206668.548862,553972.578541
length,2
206608.106140,554032.381212
206516.433278,554166.787714
length,5
204816.628262,561572.007938
204830.906596,561568.615348
204835.964067,561559.777832
204839.549790,561537.828458
204845.419155,561521.287028
length,3
204586.106584,562520.241445
204600.928554,562487.175046
204606.381709,562476.412587
length,3
204586.114804,562518.699841
204586.114804,562518.699841
204596.667650,562563.463903
length,3
204535.800417,565087.395109
204503.696992,565108.806910
204489.834893,565106.420484
length,3
204540.257530,564396.375197
204548.416737,564384.085536
204563.636510,564348.708818
length,5
204380.520323,565368.688226
204369.306684,565375.565813
204361.145409,565388.240863
204351.897843,565387.806113
204343.437528,565384.292268
length,2
204384.510319,565704.403299
204387.698400,565684.764301
length,2
204445.494151,565687.770559
204443.054251,565711.653082
length,3
204305.851233,566866.578584
204271.828997,566886.438429
204297.775038,566935.524211
length,3
189081.739549,550388.501051
189079.357650,550361.998258
189092.729816,550338.102130
length,10
189755.285777,549332.477963
189757.239925,549320.820077
189776.348744,549285.601505
189778.343139,549266.375221
189775.194671,549265.412401
189761.844324,549285.209013
189732.922764,549327.313297
189726.221597,549342.099526
189705.832930,549380.780236
189698.286334,549376.640439
length,2
190054.233156,548682.536157
190244.597391,548763.018831
length,5
190054.234833,548682.220807
190065.535337,548632.769540
190080.916944,548586.808919
190095.028766,548542.418340
190096.639051,548536.119723
length,3
190097.271428,548535.807726
190100.253776,548508.702713
190097.818165,548492.291097
length,9
189797.447249,547808.572831
189805.065942,547799.152568
189872.430125,547822.216531
189949.828512,547856.056045
189966.773587,547871.914075
190007.450550,547932.048522
190026.059717,547990.804217
190043.360536,548058.383008
190061.137804,548154.977357
length,5
189420.899030,547691.780434
189439.239613,547682.417172
189448.639755,547693.820059
189483.251120,547708.510559
189465.735703,547681.296594
length,4
189215.309948,547331.178636
189228.208909,547277.636232
189253.855959,547198.932898
189255.140826,547194.524707
length,3
189254.520184,547192.629256
189256.506153,547174.979727
189258.632927,547130.840819
length,3
188748.630211,545600.848750
188800.763750,545641.491668
188840.253141,545687.743853
length,2
188564.097783,543176.023406
188693.253751,543202.568773
length,7
188508.485728,543196.541692
188512.266572,543197.192490
188530.754479,543160.078392
188579.494886,543008.334507
188607.875372,542889.910469
188617.479890,542862.840653
188613.081744,542859.663711
length,2
188583.933226,543003.943061
188618.332638,542939.792638
length,2
188671.909941,542708.604087
188640.669737,542652.935095
length,5
188849.937129,542202.453062
188854.069629,542136.880437
188870.695544,542094.079965
188909.986443,542058.968446
188927.646022,542059.062218
length,3
188869.460938,542089.027673
188867.112290,542056.217917
188853.236907,542056.144239
length,3
189877.181694,540457.035536
189877.181694,540457.035536
189882.441559,540416.697524
length,4
190547.577516,539309.218170
190552.850722,539266.357321
190560.670157,539219.094956
190568.986409,539197.063954
length,4
190575.410559,539175.022910
190600.215390,539136.050018
190612.302455,539116.561898
190632.558502,539102.793592
length,6
190479.909915,539462.123558
190464.065421,539476.545985
190446.271922,539501.680275
190384.374325,539636.956151
190350.632559,539696.064565
190345.943170,539747.758554
length,5
190339.870486,539703.576062
190302.985258,539760.775634
190293.287087,539805.505137
190312.308517,539786.684554
190321.755630,539789.257567
length,9
189906.821809,540665.645079
189914.084903,540663.791482
189942.897258,540642.184669
189946.359412,540643.464483
189918.733125,540679.268741
189902.207700,540703.148289
189886.311300,540727.346535
189886.316322,540726.400485
189885.524284,540697.383266
length,6
189626.445745,541085.633700
189647.355938,541067.453902
189666.696080,541048.004332
189689.800330,541032.359051
189706.765606,541044.432751
189701.606165,541065.849758
length,4
189214.013144,541728.352512
189228.582859,541716.446244
189260.298666,541682.555910
189263.422025,541688.248949
length,2
188661.029926,543599.276225
188658.406627,543618.183798
length,8
188392.334640,543957.357525
188311.239158,543907.100126
188307.505219,543897.619541
188310.185477,543867.990096
188312.859033,543839.622049
188246.679209,543831.071190
188248.661761,543814.052373
188241.183831,543796.983303
length,3
188597.857845,544330.572218
188623.126014,544323.137852
188637.364046,544373.670841
length,3
188649.183924,544523.213537
188647.643648,544456.980081
188640.947204,544411.532890
length,2
188597.193640,544336.875858
188630.550328,544350.298119
length,2
188836.309518,545213.266017
188846.860494,545245.488647
length,4
188839.419448,545221.481862
188865.100504,545255.046320
188890.798314,545285.457284
188900.738697,545313.892370
length,4
188930.345356,545439.562386
188923.612094,545401.052866
188918.764226,545363.814798
188915.083920,545344.243013
length,3
189227.601635,545878.859710
189203.396493,545804.937159
189269.237256,545758.613959
length,5
189211.820161,546474.803681
189184.019104,546484.116683
189169.583409,546470.794898
189160.206718,546454.977131
189111.592583,546464.179516
length,5
189513.728479,546750.770374
189525.238628,546721.187829
189529.737331,546705.443802
189546.561738,546744.006993
189584.407073,546743.577427
length,7
189472.160666,547095.551894
189488.682898,547072.303171
189493.198369,547053.405648
189507.815092,547032.669665
189499.263989,547098.849549
189513.005283,547124.151290
189514.202985,547136.141289
length,7
189626.659864,547456.512869
189612.952105,547424.904121
189653.243130,547438.994089
189676.136073,547403.795598
189684.308349,547408.884781
189700.753482,547400.142153
189728.534448,547394.613373
length,4
190245.743782,547983.930499
190248.393999,547959.977305
190233.387963,547935.299524
190232.827677,547922.051468
length,8
184099.409913,553943.035173
184071.901005,553897.477348
184058.143194,553875.329133
184048.736469,553865.187641
184034.881301,553861.329609
184020.985848,553865.039928
184010.978641,553849.218816
183989.749834,553808.740137
length,2
188039.885525,551379.333793
188017.099843,551394.349766
length,2
196890.651940,545500.467128
196954.198958,545529.818037
length,2
193660.788274,547862.381788
193639.535507,547826.317743
length,9
193692.410578,547846.151171
193744.235484,547826.243633
193785.140623,547843.490546
193814.129472,547848.059701
193842.645210,547822.982479
193874.418403,547778.370237
193869.523663,547749.961794
193861.448586,547726.582207
193854.571208,547715.192677
length,9
193855.195205,547716.457436
193854.601384,547709.516353
193865.997620,547701.377571
193869.184662,547695.087308
193861.015703,547689.367397
193852.112102,547703.195915
193843.121327,547733.422702
193838.568939,547759.258041
193848.599829,547770.664335
length,7
193751.159800,547828.803326
193777.008548,547830.832905
193783.349104,547824.559409
193779.591712,547819.493670
193734.865475,547809.164368
193719.144852,547800.250709
193717.890153,547798.982598
length,5
200760.693709,546346.335251
200713.182833,546385.187712
200711.817507,546404.732937
200685.113270,546444.957424
200665.487598,546458.729073
length,2
205821.098777,546568.124362
205828.777926,546547.351128
length,2
205891.208249,546549.575117
205889.376454,546538.212264
length,2
206014.240465,546542.029531
206015.572281,546528.791304
length,2
206763.257281,546596.468729
206759.016610,546563.648265
length,2
206874.373136,546576.245219
206863.835404,546541.499096
length,2
207288.354155,546415.717183
207291.568051,546404.381129
length,0
length,2
207483.247500,546416.122238
207481.261508,546433.772119
length,2
207727.688930,546469.141212
207731.600580,546445.194261
length,2
207847.339891,546504.467273
207854.381639,546484.952066
length,2
207968.228826,546544.215034
207975.263872,546525.961249
length,2
208086.541291,546594.040796
208091.677498,546577.038377
length,2
208986.961317,547118.233230
209010.817781,547139.174156
length,2
209086.991802,547225.673824
209101.790093,547230.167601
length,2
209479.911072,547230.600676
209480.299743,547098.149188
length,3
209297.427686,547446.602178
209308.700060,547461.799646
209314.960255,547470.663159
length,2
209927.151033,548466.688832
209941.734576,548452.259545
length,2
210572.837677,549390.675156
210527.382497,549280.055343
length,6
213849.302061,552272.893769
213852.975611,552293.727546
213897.602097,552322.978779
213891.083501,552362.680353
213904.264780,552374.734442
213944.791723,552344.674843
length,2
217552.809023,553608.947690
217540.308780,553587.436109
length,3
187480.528183,553180.952326
187498.512790,553177.454844
187512.872429,553179.926733
length,2
187515.930419,553167.965679
187504.631957,553152.933887
length,2
187508.686857,553178.706724
187515.337944,553166.764793
length,5
187515.325195,553169.160191
187526.725645,553165.028800
187530.293245,553169.838719
187550.189137,553144.792215
187570.027662,553130.525002
length,3
187734.498390,552946.350551
187728.551325,552938.533636
187736.368240,552932.586570
length,5
188552.302428,552430.287263
188574.469444,552428.608618
188581.630153,552433.437659
188595.288987,552455.069559
188626.206129,552497.154779
length,2
190784.728206,550545.549918
190824.605985,550591.874916
length,2
190980.934948,550474.729343
190995.221385,550490.974789
length,2
191277.200908,550169.684363
191287.327243,550179.918994
length,2
191093.138401,550265.422673
191140.183319,550315.379009
length,2
193440.283124,549444.279502
193440.206691,549458.651982
length,3
196084.712436,547113.758760
196065.472678,547128.029419
196108.361051,547171.376174
length,2
196145.973911,547080.547559
196174.559798,547110.643106
length,2
199476.097305,546613.010720
199516.418320,546632.388996
length,3
200228.216820,547188.933459
200232.851703,547218.302955
200194.939036,547252.836158
length,2
203991.444344,548617.495924
204018.090557,548674.530933
length,2
204256.653239,548522.486802
204278.470373,548586.682676
length,2
204697.044717,548369.120159
204718.294852,548427.324269
length,2
204864.442073,548310.721278
204885.064698,548374.311960
length,2
206868.082140,547607.260393
206862.966868,547595.729716
length,2
207092.858506,547521.028785
207097.398622,547532.556407
length,2
207859.456255,547649.916825
207864.553186,547664.898466
