length,5
191058.963605,551398.599967
191071.498074,551406.451946
191086.955118,551427.794020
191102.329326,551464.706242
191111.944214,551627.350266
length,5
191162.584027,551451.851696
191151.221772,551448.796903
191142.221472,551452.042798
191136.777643,551462.194605
191144.884251,551626.926651
length,3
191102.029900,551464.704649
191113.723441,551461.772517
191137.379681,551461.598939
length,2
191112.246826,551626.753007
191121.804251,551856.470032
length,2
191144.581639,551627.523910
191154.750661,551854.848721
length,3
191121.809030,551855.571754
191126.343260,551960.098481
191132.877867,552082.601916
length,4
191154.451235,551854.847128
191157.705005,551918.643967
191163.604123,552048.031017
191165.825871,552080.681188
length,5
191133.177293,552082.603510
191133.925707,552167.047991
191135.593210,552191.311049
191141.161108,552270.391357
191142.760097,552307.529730
length,4
191165.526445,552080.679595
191168.960133,552166.934974
191172.225035,552228.635834
191176.002747,552306.508881
length,4
191142.467044,552306.330433
191147.104788,552391.394480
191150.877707,552470.165804
191152.054573,552530.358381
length,4
191176.001154,552306.808307
191178.428314,552357.126203
191184.188871,552456.269646
191188.280331,552531.449455
length,7
191151.750367,552531.255065
191152.726593,552572.881642
191155.582098,552655.241298
191155.824161,552666.022224
191163.413246,552702.893042
191194.876733,552754.862630
191202.308205,552765.082948
length,7
191187.984091,552530.849010
191191.911556,552580.576022
191195.848578,552628.506479
191208.379719,552693.250998
191226.404095,552738.561514
191238.288715,552755.991956
191244.227837,552765.306029
length,7
191202.604444,552765.683393
191218.362478,552786.727661
191233.817899,552808.369189
191253.431821,552836.320970
191281.977530,552873.902187
191313.197358,552915.390286
191339.663019,552949.966094
length,3
191243.633766,552764.404564
191252.855420,552775.832147
191218.958143,552787.329700
length,7
191339.062573,552950.262333
191352.754900,552965.606359
191389.335710,553012.512815
191453.595818,553091.007205
191491.681724,553136.424509
191517.266633,553167.701863
191526.190452,553178.828434
length,4
191527.381782,553180.032512
191573.488447,553237.469893
191664.222172,553349.043016
191709.441710,553404.379650
length,4
191708.554587,553402.278886
191787.687183,553499.417434
191838.868148,553559.876201
191904.924798,553638.380230
length,4
191465.831011,553042.563931
191531.239426,553130.346912
191633.559942,553259.049455
191645.466867,553272.287947
length,2
191513.699179,553106.598235
191486.022907,553130.705137
length,6
191645.463679,553272.886799
191706.172104,553343.577027
191757.075960,553399.842221
191769.570581,553415.179886
191804.080901,553457.284407
191843.354946,553504.504675
length,5
191842.461448,553503.601616
191918.634845,553594.136874
191947.494314,553629.024900
191977.540331,553666.015287
192031.414538,553726.787846
length,3
191904.620591,553639.276915
191942.416625,553682.896113
191978.420882,553725.607474
length,4
192030.223209,553725.583766
192081.088809,553789.035230
192137.923807,553856.111691
192149.829137,553869.649624
length,5
191977.519416,553726.201545
192000.119619,553755.666437
192034.942109,553795.377166
192089.698652,553859.148780
192100.111631,553871.780464
length,11
192149.529710,553869.648030
192176.907983,553901.533842
192187.919815,553914.168716
192202.191865,553933.109073
192213.785017,553949.040824
192231.930483,553971.595018
192267.340668,554013.404937
192288.454894,554040.765892
192300.043264,554057.595925
192317.863801,554084.939349
192323.200877,554094.849107
length,9
192099.809017,553872.377723
192140.285540,553918.706121
192151.888254,553932.841313
192183.735605,553968.943002
192220.037691,554011.955405
192240.871617,554035.721650
192245.630560,554041.735677
192265.835350,554071.187834
192280.980175,554094.923798
length,6
192322.307380,554093.946046
192330.304227,554110.457528
192345.350232,554152.757925
192357.097764,554195.939069
192370.243603,554257.692617
192381.548250,554327.820539
length,6
192280.384510,554094.321758
192293.407849,554122.837386
192298.743331,554133.046570
192319.683821,554193.044995
192340.706959,554293.766996
192346.502619,554330.029458
length,4
192346.209569,554328.830159
192360.068777,554425.321942
192377.005127,554506.259499
192388.104376,554558.719678
length,5
192381.850864,554327.223280
192389.689907,554373.377971
192390.220219,554386.256491
192417.354357,554520.248301
192424.930627,554559.514595
length,6
192387.803356,554559.017510
192402.130936,554623.771704
192414.359339,554689.113595
192416.358086,554707.389760
192430.725508,554764.658299
192437.487975,554788.050218
length,5
192425.220489,554561.312747
192435.716100,554614.668020
192449.169309,554674.926041
192456.178601,554708.200623
192471.646490,554783.740549
length,5
192436.295052,554787.145563
192449.189249,554839.914739
192458.218001,554887.572946
192474.835757,554972.102043
192483.308692,555011.672552
length,4
192471.649678,554783.141696
192486.564937,554849.995073
192504.052281,554939.918628
192518.637814,555012.459516
length,4
192482.709839,555011.669364
192499.028157,555096.196871
192522.105736,555204.715158
192526.813658,555220.310836
length,5
192518.333605,555013.356201
192531.132140,555084.090968
192541.600621,555142.536502
192547.409002,555176.403567
192556.152660,555221.365350
length,4
192526.818441,555219.412557
192532.937405,555251.185232
192539.363766,555281.462369
192550.120501,555342.005485
length,2
192550.423116,555341.408226
192567.988534,555416.659905
length,6
192556.157443,555220.467071
192562.263654,555254.635158
192569.209155,555299.886803
192572.993288,555320.268523
192579.160078,555343.058408
192592.898319,555406.012881
length,4
192594.965606,555411.413716
192602.842860,555450.382194
192620.056537,555479.219598
192624.455462,555496.610244
